<?xml version="1.0" encoding="utf-8" standalone="no"?>
<!DOCTYPE svg PUBLIC "-//W3C//DTD SVG 1.1//EN"
  "http://www.w3.org/Graphics/SVG/1.1/DTD/svg11.dtd">
<!-- Created with matplotlib (https://matplotlib.org/) -->
<svg height="432pt" version="1.1" viewBox="0 0 576 432" width="576pt" xmlns="http://www.w3.org/2000/svg" xmlns:xlink="http://www.w3.org/1999/xlink">
 <defs>
  <style type="text/css">
*{stroke-linecap:butt;stroke-linejoin:round;}
  </style>
 </defs>
 <g id="figure_1">
  <g id="patch_1">
   <path d="M 0 432 
L 576 432 
L 576 0 
L 0 0 
z
" style="fill:none;"/>
  </g>
  <g id="axes_1">
   <g id="patch_2">
    <path d="M 72 378 
L 518.4 378 
L 518.4 51.84 
L 72 51.84 
z
" style="fill:none;"/>
   </g>
   <g id="matplotlib.axis_1">
    <g id="xtick_1">
     <g id="line2d_1">
      <defs>
       <path d="M 0 0 
L 0 3.5 
" id="ma2e601a76b" style="stroke:#cacaca;stroke-width:0.8;"/>
      </defs>
      <g>
       <use style="fill:#cacaca;stroke:#cacaca;stroke-width:0.8;" x="116.859233" xlink:href="#ma2e601a76b" y="378"/>
      </g>
     </g>
     <g id="text_1">
      <!-- 45000 -->
      <defs>
       <path d="M 37.796875 64.3125 
L 12.890625 25.390625 
L 37.796875 25.390625 
z
M 35.203125 72.90625 
L 47.609375 72.90625 
L 47.609375 25.390625 
L 58.015625 25.390625 
L 58.015625 17.1875 
L 47.609375 17.1875 
L 47.609375 0 
L 37.796875 0 
L 37.796875 17.1875 
L 4.890625 17.1875 
L 4.890625 26.703125 
z
" id="DejaVuSans-52"/>
       <path d="M 10.796875 72.90625 
L 49.515625 72.90625 
L 49.515625 64.59375 
L 19.828125 64.59375 
L 19.828125 46.734375 
Q 21.96875 47.46875 24.109375 47.828125 
Q 26.265625 48.1875 28.421875 48.1875 
Q 40.625 48.1875 47.75 41.5 
Q 54.890625 34.8125 54.890625 23.390625 
Q 54.890625 11.625 47.5625 5.09375 
Q 40.234375 -1.421875 26.90625 -1.421875 
Q 22.3125 -1.421875 17.546875 -0.640625 
Q 12.796875 0.140625 7.71875 1.703125 
L 7.71875 11.625 
Q 12.109375 9.234375 16.796875 8.0625 
Q 21.484375 6.890625 26.703125 6.890625 
Q 35.15625 6.890625 40.078125 11.328125 
Q 45.015625 15.765625 45.015625 23.390625 
Q 45.015625 31 40.078125 35.4375 
Q 35.15625 39.890625 26.703125 39.890625 
Q 22.75 39.890625 18.8125 39.015625 
Q 14.890625 38.140625 10.796875 36.28125 
z
" id="DejaVuSans-53"/>
       <path d="M 31.78125 66.40625 
Q 24.171875 66.40625 20.328125 58.90625 
Q 16.5 51.421875 16.5 36.375 
Q 16.5 21.390625 20.328125 13.890625 
Q 24.171875 6.390625 31.78125 6.390625 
Q 39.453125 6.390625 43.28125 13.890625 
Q 47.125 21.390625 47.125 36.375 
Q 47.125 51.421875 43.28125 58.90625 
Q 39.453125 66.40625 31.78125 66.40625 
z
M 31.78125 74.21875 
Q 44.046875 74.21875 50.515625 64.515625 
Q 56.984375 54.828125 56.984375 36.375 
Q 56.984375 17.96875 50.515625 8.265625 
Q 44.046875 -1.421875 31.78125 -1.421875 
Q 19.53125 -1.421875 13.0625 8.265625 
Q 6.59375 17.96875 6.59375 36.375 
Q 6.59375 54.828125 13.0625 64.515625 
Q 19.53125 74.21875 31.78125 74.21875 
z
" id="DejaVuSans-48"/>
      </defs>
      <g style="fill:#cacaca;" transform="translate(100.952983 392.598437)scale(0.1 -0.1)">
       <use xlink:href="#DejaVuSans-52"/>
       <use x="63.623047" xlink:href="#DejaVuSans-53"/>
       <use x="127.246094" xlink:href="#DejaVuSans-48"/>
       <use x="190.869141" xlink:href="#DejaVuSans-48"/>
       <use x="254.492188" xlink:href="#DejaVuSans-48"/>
      </g>
     </g>
    </g>
    <g id="xtick_2">
     <g id="line2d_2">
      <g>
       <use style="fill:#cacaca;stroke:#cacaca;stroke-width:0.8;" x="176.306155" xlink:href="#ma2e601a76b" y="378"/>
      </g>
     </g>
     <g id="text_2">
      <!-- 50000 -->
      <g style="fill:#cacaca;" transform="translate(160.399905 392.598437)scale(0.1 -0.1)">
       <use xlink:href="#DejaVuSans-53"/>
       <use x="63.623047" xlink:href="#DejaVuSans-48"/>
       <use x="127.246094" xlink:href="#DejaVuSans-48"/>
       <use x="190.869141" xlink:href="#DejaVuSans-48"/>
       <use x="254.492188" xlink:href="#DejaVuSans-48"/>
      </g>
     </g>
    </g>
    <g id="xtick_3">
     <g id="line2d_3">
      <g>
       <use style="fill:#cacaca;stroke:#cacaca;stroke-width:0.8;" x="235.753078" xlink:href="#ma2e601a76b" y="378"/>
      </g>
     </g>
     <g id="text_3">
      <!-- 55000 -->
      <g style="fill:#cacaca;" transform="translate(219.846828 392.598437)scale(0.1 -0.1)">
       <use xlink:href="#DejaVuSans-53"/>
       <use x="63.623047" xlink:href="#DejaVuSans-53"/>
       <use x="127.246094" xlink:href="#DejaVuSans-48"/>
       <use x="190.869141" xlink:href="#DejaVuSans-48"/>
       <use x="254.492188" xlink:href="#DejaVuSans-48"/>
      </g>
     </g>
    </g>
    <g id="xtick_4">
     <g id="line2d_4">
      <g>
       <use style="fill:#cacaca;stroke:#cacaca;stroke-width:0.8;" x="295.2" xlink:href="#ma2e601a76b" y="378"/>
      </g>
     </g>
     <g id="text_4">
      <!-- 60000 -->
      <defs>
       <path d="M 33.015625 40.375 
Q 26.375 40.375 22.484375 35.828125 
Q 18.609375 31.296875 18.609375 23.390625 
Q 18.609375 15.53125 22.484375 10.953125 
Q 26.375 6.390625 33.015625 6.390625 
Q 39.65625 6.390625 43.53125 10.953125 
Q 47.40625 15.53125 47.40625 23.390625 
Q 47.40625 31.296875 43.53125 35.828125 
Q 39.65625 40.375 33.015625 40.375 
z
M 52.59375 71.296875 
L 52.59375 62.3125 
Q 48.875 64.0625 45.09375 64.984375 
Q 41.3125 65.921875 37.59375 65.921875 
Q 27.828125 65.921875 22.671875 59.328125 
Q 17.53125 52.734375 16.796875 39.40625 
Q 19.671875 43.65625 24.015625 45.921875 
Q 28.375 48.1875 33.59375 48.1875 
Q 44.578125 48.1875 50.953125 41.515625 
Q 57.328125 34.859375 57.328125 23.390625 
Q 57.328125 12.15625 50.6875 5.359375 
Q 44.046875 -1.421875 33.015625 -1.421875 
Q 20.359375 -1.421875 13.671875 8.265625 
Q 6.984375 17.96875 6.984375 36.375 
Q 6.984375 53.65625 15.1875 63.9375 
Q 23.390625 74.21875 37.203125 74.21875 
Q 40.921875 74.21875 44.703125 73.484375 
Q 48.484375 72.75 52.59375 71.296875 
z
" id="DejaVuSans-54"/>
      </defs>
      <g style="fill:#cacaca;" transform="translate(279.29375 392.598437)scale(0.1 -0.1)">
       <use xlink:href="#DejaVuSans-54"/>
       <use x="63.623047" xlink:href="#DejaVuSans-48"/>
       <use x="127.246094" xlink:href="#DejaVuSans-48"/>
       <use x="190.869141" xlink:href="#DejaVuSans-48"/>
       <use x="254.492188" xlink:href="#DejaVuSans-48"/>
      </g>
     </g>
    </g>
    <g id="xtick_5">
     <g id="line2d_5">
      <g>
       <use style="fill:#cacaca;stroke:#cacaca;stroke-width:0.8;" x="354.646922" xlink:href="#ma2e601a76b" y="378"/>
      </g>
     </g>
     <g id="text_5">
      <!-- 65000 -->
      <g style="fill:#cacaca;" transform="translate(338.740672 392.598437)scale(0.1 -0.1)">
       <use xlink:href="#DejaVuSans-54"/>
       <use x="63.623047" xlink:href="#DejaVuSans-53"/>
       <use x="127.246094" xlink:href="#DejaVuSans-48"/>
       <use x="190.869141" xlink:href="#DejaVuSans-48"/>
       <use x="254.492188" xlink:href="#DejaVuSans-48"/>
      </g>
     </g>
    </g>
    <g id="xtick_6">
     <g id="line2d_6">
      <g>
       <use style="fill:#cacaca;stroke:#cacaca;stroke-width:0.8;" x="414.093845" xlink:href="#ma2e601a76b" y="378"/>
      </g>
     </g>
     <g id="text_6">
      <!-- 70000 -->
      <defs>
       <path d="M 8.203125 72.90625 
L 55.078125 72.90625 
L 55.078125 68.703125 
L 28.609375 0 
L 18.3125 0 
L 43.21875 64.59375 
L 8.203125 64.59375 
z
" id="DejaVuSans-55"/>
      </defs>
      <g style="fill:#cacaca;" transform="translate(398.187595 392.598437)scale(0.1 -0.1)">
       <use xlink:href="#DejaVuSans-55"/>
       <use x="63.623047" xlink:href="#DejaVuSans-48"/>
       <use x="127.246094" xlink:href="#DejaVuSans-48"/>
       <use x="190.869141" xlink:href="#DejaVuSans-48"/>
       <use x="254.492188" xlink:href="#DejaVuSans-48"/>
      </g>
     </g>
    </g>
    <g id="xtick_7">
     <g id="line2d_7">
      <g>
       <use style="fill:#cacaca;stroke:#cacaca;stroke-width:0.8;" x="473.540767" xlink:href="#ma2e601a76b" y="378"/>
      </g>
     </g>
     <g id="text_7">
      <!-- 75000 -->
      <g style="fill:#cacaca;" transform="translate(457.634517 392.598437)scale(0.1 -0.1)">
       <use xlink:href="#DejaVuSans-55"/>
       <use x="63.623047" xlink:href="#DejaVuSans-53"/>
       <use x="127.246094" xlink:href="#DejaVuSans-48"/>
       <use x="190.869141" xlink:href="#DejaVuSans-48"/>
       <use x="254.492188" xlink:href="#DejaVuSans-48"/>
      </g>
     </g>
    </g>
    <g id="text_8">
     <!-- salary -->
     <defs>
      <path d="M 44.28125 53.078125 
L 44.28125 44.578125 
Q 40.484375 46.53125 36.375 47.5 
Q 32.28125 48.484375 27.875 48.484375 
Q 21.1875 48.484375 17.84375 46.4375 
Q 14.5 44.390625 14.5 40.28125 
Q 14.5 37.15625 16.890625 35.375 
Q 19.28125 33.59375 26.515625 31.984375 
L 29.59375 31.296875 
Q 39.15625 29.25 43.1875 25.515625 
Q 47.21875 21.78125 47.21875 15.09375 
Q 47.21875 7.46875 41.1875 3.015625 
Q 35.15625 -1.421875 24.609375 -1.421875 
Q 20.21875 -1.421875 15.453125 -0.5625 
Q 10.6875 0.296875 5.421875 2 
L 5.421875 11.28125 
Q 10.40625 8.6875 15.234375 7.390625 
Q 20.0625 6.109375 24.8125 6.109375 
Q 31.15625 6.109375 34.5625 8.28125 
Q 37.984375 10.453125 37.984375 14.40625 
Q 37.984375 18.0625 35.515625 20.015625 
Q 33.0625 21.96875 24.703125 23.78125 
L 21.578125 24.515625 
Q 13.234375 26.265625 9.515625 29.90625 
Q 5.8125 33.546875 5.8125 39.890625 
Q 5.8125 47.609375 11.28125 51.796875 
Q 16.75 56 26.8125 56 
Q 31.78125 56 36.171875 55.265625 
Q 40.578125 54.546875 44.28125 53.078125 
z
" id="DejaVuSans-115"/>
      <path d="M 34.28125 27.484375 
Q 23.390625 27.484375 19.1875 25 
Q 14.984375 22.515625 14.984375 16.5 
Q 14.984375 11.71875 18.140625 8.90625 
Q 21.296875 6.109375 26.703125 6.109375 
Q 34.1875 6.109375 38.703125 11.40625 
Q 43.21875 16.703125 43.21875 25.484375 
L 43.21875 27.484375 
z
M 52.203125 31.203125 
L 52.203125 0 
L 43.21875 0 
L 43.21875 8.296875 
Q 40.140625 3.328125 35.546875 0.953125 
Q 30.953125 -1.421875 24.3125 -1.421875 
Q 15.921875 -1.421875 10.953125 3.296875 
Q 6 8.015625 6 15.921875 
Q 6 25.140625 12.171875 29.828125 
Q 18.359375 34.515625 30.609375 34.515625 
L 43.21875 34.515625 
L 43.21875 35.40625 
Q 43.21875 41.609375 39.140625 45 
Q 35.0625 48.390625 27.6875 48.390625 
Q 23 48.390625 18.546875 47.265625 
Q 14.109375 46.140625 10.015625 43.890625 
L 10.015625 52.203125 
Q 14.9375 54.109375 19.578125 55.046875 
Q 24.21875 56 28.609375 56 
Q 40.484375 56 46.34375 49.84375 
Q 52.203125 43.703125 52.203125 31.203125 
z
" id="DejaVuSans-97"/>
      <path d="M 9.421875 75.984375 
L 18.40625 75.984375 
L 18.40625 0 
L 9.421875 0 
z
" id="DejaVuSans-108"/>
      <path d="M 41.109375 46.296875 
Q 39.59375 47.171875 37.8125 47.578125 
Q 36.03125 48 33.890625 48 
Q 26.265625 48 22.1875 43.046875 
Q 18.109375 38.09375 18.109375 28.8125 
L 18.109375 0 
L 9.078125 0 
L 9.078125 54.6875 
L 18.109375 54.6875 
L 18.109375 46.1875 
Q 20.953125 51.171875 25.484375 53.578125 
Q 30.03125 56 36.53125 56 
Q 37.453125 56 38.578125 55.875 
Q 39.703125 55.765625 41.0625 55.515625 
z
" id="DejaVuSans-114"/>
      <path d="M 32.171875 -5.078125 
Q 28.375 -14.84375 24.75 -17.8125 
Q 21.140625 -20.796875 15.09375 -20.796875 
L 7.90625 -20.796875 
L 7.90625 -13.28125 
L 13.1875 -13.28125 
Q 16.890625 -13.28125 18.9375 -11.515625 
Q 21 -9.765625 23.484375 -3.21875 
L 25.09375 0.875 
L 2.984375 54.6875 
L 12.5 54.6875 
L 29.59375 11.921875 
L 46.6875 54.6875 
L 56.203125 54.6875 
z
" id="DejaVuSans-121"/>
     </defs>
     <g style="fill:#cacaca;" transform="translate(280.063281 406.276563)scale(0.1 -0.1)">
      <use xlink:href="#DejaVuSans-115"/>
      <use x="52.099609" xlink:href="#DejaVuSans-97"/>
      <use x="113.378906" xlink:href="#DejaVuSans-108"/>
      <use x="141.162109" xlink:href="#DejaVuSans-97"/>
      <use x="202.441406" xlink:href="#DejaVuSans-114"/>
      <use x="243.554688" xlink:href="#DejaVuSans-121"/>
     </g>
    </g>
   </g>
   <g id="matplotlib.axis_2">
    <g id="ytick_1">
     <g id="line2d_8">
      <defs>
       <path d="M 0 0 
L -3.5 0 
" id="mb879e241e5" style="stroke:#cacaca;stroke-width:0.8;"/>
      </defs>
      <g>
       <use style="fill:#cacaca;stroke:#cacaca;stroke-width:0.8;" x="72" xlink:href="#mb879e241e5" y="378"/>
      </g>
     </g>
     <g id="text_9">
      <!-- 0.00000 -->
      <defs>
       <path d="M 10.6875 12.40625 
L 21 12.40625 
L 21 0 
L 10.6875 0 
z
" id="DejaVuSans-46"/>
      </defs>
      <g style="fill:#cacaca;" transform="translate(23.646875 381.799219)scale(0.1 -0.1)">
       <use xlink:href="#DejaVuSans-48"/>
       <use x="63.623047" xlink:href="#DejaVuSans-46"/>
       <use x="95.410156" xlink:href="#DejaVuSans-48"/>
       <use x="159.033203" xlink:href="#DejaVuSans-48"/>
       <use x="222.65625" xlink:href="#DejaVuSans-48"/>
       <use x="286.279297" xlink:href="#DejaVuSans-48"/>
       <use x="349.902344" xlink:href="#DejaVuSans-48"/>
      </g>
     </g>
    </g>
    <g id="ytick_2">
     <g id="line2d_9">
      <g>
       <use style="fill:#cacaca;stroke:#cacaca;stroke-width:0.8;" x="72" xlink:href="#mb879e241e5" y="317.968041"/>
      </g>
     </g>
     <g id="text_10">
      <!-- 0.00001 -->
      <defs>
       <path d="M 12.40625 8.296875 
L 28.515625 8.296875 
L 28.515625 63.921875 
L 10.984375 60.40625 
L 10.984375 69.390625 
L 28.421875 72.90625 
L 38.28125 72.90625 
L 38.28125 8.296875 
L 54.390625 8.296875 
L 54.390625 0 
L 12.40625 0 
z
" id="DejaVuSans-49"/>
      </defs>
      <g style="fill:#cacaca;" transform="translate(23.646875 321.767259)scale(0.1 -0.1)">
       <use xlink:href="#DejaVuSans-48"/>
       <use x="63.623047" xlink:href="#DejaVuSans-46"/>
       <use x="95.410156" xlink:href="#DejaVuSans-48"/>
       <use x="159.033203" xlink:href="#DejaVuSans-48"/>
       <use x="222.65625" xlink:href="#DejaVuSans-48"/>
       <use x="286.279297" xlink:href="#DejaVuSans-48"/>
       <use x="349.902344" xlink:href="#DejaVuSans-49"/>
      </g>
     </g>
    </g>
    <g id="ytick_3">
     <g id="line2d_10">
      <g>
       <use style="fill:#cacaca;stroke:#cacaca;stroke-width:0.8;" x="72" xlink:href="#mb879e241e5" y="257.936081"/>
      </g>
     </g>
     <g id="text_11">
      <!-- 0.00002 -->
      <defs>
       <path d="M 19.1875 8.296875 
L 53.609375 8.296875 
L 53.609375 0 
L 7.328125 0 
L 7.328125 8.296875 
Q 12.9375 14.109375 22.625 23.890625 
Q 32.328125 33.6875 34.8125 36.53125 
Q 39.546875 41.84375 41.421875 45.53125 
Q 43.3125 49.21875 43.3125 52.78125 
Q 43.3125 58.59375 39.234375 62.25 
Q 35.15625 65.921875 28.609375 65.921875 
Q 23.96875 65.921875 18.8125 64.3125 
Q 13.671875 62.703125 7.8125 59.421875 
L 7.8125 69.390625 
Q 13.765625 71.78125 18.9375 73 
Q 24.125 74.21875 28.421875 74.21875 
Q 39.75 74.21875 46.484375 68.546875 
Q 53.21875 62.890625 53.21875 53.421875 
Q 53.21875 48.921875 51.53125 44.890625 
Q 49.859375 40.875 45.40625 35.40625 
Q 44.1875 33.984375 37.640625 27.21875 
Q 31.109375 20.453125 19.1875 8.296875 
z
" id="DejaVuSans-50"/>
      </defs>
      <g style="fill:#cacaca;" transform="translate(23.646875 261.7353)scale(0.1 -0.1)">
       <use xlink:href="#DejaVuSans-48"/>
       <use x="63.623047" xlink:href="#DejaVuSans-46"/>
       <use x="95.410156" xlink:href="#DejaVuSans-48"/>
       <use x="159.033203" xlink:href="#DejaVuSans-48"/>
       <use x="222.65625" xlink:href="#DejaVuSans-48"/>
       <use x="286.279297" xlink:href="#DejaVuSans-48"/>
       <use x="349.902344" xlink:href="#DejaVuSans-50"/>
      </g>
     </g>
    </g>
    <g id="ytick_4">
     <g id="line2d_11">
      <g>
       <use style="fill:#cacaca;stroke:#cacaca;stroke-width:0.8;" x="72" xlink:href="#mb879e241e5" y="197.904122"/>
      </g>
     </g>
     <g id="text_12">
      <!-- 0.00003 -->
      <defs>
       <path d="M 40.578125 39.3125 
Q 47.65625 37.796875 51.625 33 
Q 55.609375 28.21875 55.609375 21.1875 
Q 55.609375 10.40625 48.1875 4.484375 
Q 40.765625 -1.421875 27.09375 -1.421875 
Q 22.515625 -1.421875 17.65625 -0.515625 
Q 12.796875 0.390625 7.625 2.203125 
L 7.625 11.71875 
Q 11.71875 9.328125 16.59375 8.109375 
Q 21.484375 6.890625 26.8125 6.890625 
Q 36.078125 6.890625 40.9375 10.546875 
Q 45.796875 14.203125 45.796875 21.1875 
Q 45.796875 27.640625 41.28125 31.265625 
Q 36.765625 34.90625 28.71875 34.90625 
L 20.21875 34.90625 
L 20.21875 43.015625 
L 29.109375 43.015625 
Q 36.375 43.015625 40.234375 45.921875 
Q 44.09375 48.828125 44.09375 54.296875 
Q 44.09375 59.90625 40.109375 62.90625 
Q 36.140625 65.921875 28.71875 65.921875 
Q 24.65625 65.921875 20.015625 65.03125 
Q 15.375 64.15625 9.8125 62.3125 
L 9.8125 71.09375 
Q 15.4375 72.65625 20.34375 73.4375 
Q 25.25 74.21875 29.59375 74.21875 
Q 40.828125 74.21875 47.359375 69.109375 
Q 53.90625 64.015625 53.90625 55.328125 
Q 53.90625 49.265625 50.4375 45.09375 
Q 46.96875 40.921875 40.578125 39.3125 
z
" id="DejaVuSans-51"/>
      </defs>
      <g style="fill:#cacaca;" transform="translate(23.646875 201.70334)scale(0.1 -0.1)">
       <use xlink:href="#DejaVuSans-48"/>
       <use x="63.623047" xlink:href="#DejaVuSans-46"/>
       <use x="95.410156" xlink:href="#DejaVuSans-48"/>
       <use x="159.033203" xlink:href="#DejaVuSans-48"/>
       <use x="222.65625" xlink:href="#DejaVuSans-48"/>
       <use x="286.279297" xlink:href="#DejaVuSans-48"/>
       <use x="349.902344" xlink:href="#DejaVuSans-51"/>
      </g>
     </g>
    </g>
    <g id="ytick_5">
     <g id="line2d_12">
      <g>
       <use style="fill:#cacaca;stroke:#cacaca;stroke-width:0.8;" x="72" xlink:href="#mb879e241e5" y="137.872162"/>
      </g>
     </g>
     <g id="text_13">
      <!-- 0.00004 -->
      <g style="fill:#cacaca;" transform="translate(23.646875 141.671381)scale(0.1 -0.1)">
       <use xlink:href="#DejaVuSans-48"/>
       <use x="63.623047" xlink:href="#DejaVuSans-46"/>
       <use x="95.410156" xlink:href="#DejaVuSans-48"/>
       <use x="159.033203" xlink:href="#DejaVuSans-48"/>
       <use x="222.65625" xlink:href="#DejaVuSans-48"/>
       <use x="286.279297" xlink:href="#DejaVuSans-48"/>
       <use x="349.902344" xlink:href="#DejaVuSans-52"/>
      </g>
     </g>
    </g>
    <g id="ytick_6">
     <g id="line2d_13">
      <g>
       <use style="fill:#cacaca;stroke:#cacaca;stroke-width:0.8;" x="72" xlink:href="#mb879e241e5" y="77.840203"/>
      </g>
     </g>
     <g id="text_14">
      <!-- 0.00005 -->
      <g style="fill:#cacaca;" transform="translate(23.646875 81.639422)scale(0.1 -0.1)">
       <use xlink:href="#DejaVuSans-48"/>
       <use x="63.623047" xlink:href="#DejaVuSans-46"/>
       <use x="95.410156" xlink:href="#DejaVuSans-48"/>
       <use x="159.033203" xlink:href="#DejaVuSans-48"/>
       <use x="222.65625" xlink:href="#DejaVuSans-48"/>
       <use x="286.279297" xlink:href="#DejaVuSans-48"/>
       <use x="349.902344" xlink:href="#DejaVuSans-53"/>
      </g>
     </g>
    </g>
   </g>
   <g id="line2d_14">
    <path clip-path="url(#pbe84ea1d96)" d="M 92.290909 377.077959 
L 95.486328 376.870724 
L 98.681747 376.531494 
L 101.877165 376.034079 
L 105.072584 375.342724 
L 108.268003 374.411662 
L 111.463422 373.184789 
L 114.65884 371.595583 
L 117.854259 369.567414 
L 121.049678 367.014374 
L 124.245097 363.842772 
L 127.440515 359.953389 
L 130.635934 355.244572 
L 133.831353 349.616164 
L 137.026772 342.974219 
L 140.22219 335.236368 
L 143.417609 326.337595 
L 146.613028 316.236166 
L 149.808447 304.919301 
L 153.003865 292.408236 
L 156.199284 278.762219 
L 159.394703 264.081073 
L 162.590122 248.505964 
L 168.980959 215.43557 
L 178.567215 164.71852 
L 181.762634 148.636061 
L 184.958053 133.442348 
L 188.153472 119.402797 
L 191.34889 106.75374 
L 194.544309 95.692844 
L 197.739728 86.371165 
L 200.935147 78.887259 
L 204.130565 73.283628 
L 207.325984 69.545662 
L 210.521403 67.603064 
L 213.716822 67.33363 
L 216.912241 68.569117 
L 220.107659 71.102856 
L 223.303078 74.698677 
L 226.498497 79.100693 
L 229.693916 84.043472 
L 239.280172 99.527612 
L 242.475591 104.129835 
L 245.671009 108.13287 
L 248.866428 111.398732 
L 252.061847 113.83056 
L 255.257266 115.374217 
L 258.452684 116.01826 
L 261.648103 115.792342 
L 264.843522 114.764131 
L 268.038941 113.034895 
L 271.234359 110.733895 
L 274.429778 108.011814 
L 284.016034 98.990661 
L 287.211453 96.255775 
L 290.406872 93.908498 
L 293.602291 92.06875 
L 296.797709 90.82766 
L 299.993128 90.243458 
L 303.188547 90.338949 
L 306.383966 91.10071 
L 309.579384 92.480091 
L 312.774803 94.396014 
L 315.970222 96.739496 
L 319.165641 99.379717 
L 325.556478 104.963043 
L 328.751897 107.606061 
L 331.947316 109.963632 
L 335.142734 111.919561 
L 338.338153 113.386185 
L 341.533572 114.311047 
L 344.728991 114.681845 
L 347.924409 114.529343 
L 351.119828 113.927948 
L 354.315247 112.993853 
L 360.706084 110.773171 
L 363.901503 109.878106 
L 367.096922 109.414776 
L 370.292341 109.603685 
L 373.487759 110.655245 
L 376.683178 112.758754 
L 379.878597 116.07235 
L 383.074016 120.714561 
L 386.269435 126.757907 
L 389.464853 134.224939 
L 392.660272 143.086899 
L 395.855691 153.265032 
L 399.05111 164.63441 
L 402.246528 177.029984 
L 405.441947 190.254423 
L 411.832785 218.29472 
L 421.419041 260.833795 
L 424.61446 274.272937 
L 427.809878 287.042714 
L 431.005297 299.008599 
L 434.200716 310.069674 
L 437.396135 320.158869 
L 440.591553 329.24161 
L 443.786972 337.313138 
L 446.982391 344.394801 
L 450.17781 350.529671 
L 453.373228 355.777796 
L 456.568647 360.211419 
L 459.764066 363.910404 
L 462.959485 366.958096 
L 466.154903 369.437737 
L 469.350322 371.429539 
L 472.545741 373.008417 
L 475.74116 374.242362 
L 478.936578 375.191382 
L 482.131997 375.906915 
L 485.327416 376.431598 
L 488.522835 376.799285 
L 491.718253 377.035187 
L 498.109091 377.170279 
L 498.109091 377.170279 
" style="fill:none;stroke:#ffa500;stroke-linecap:square;stroke-width:1.5;"/>
   </g>
   <g id="line2d_15">
    <path clip-path="url(#pbe84ea1d96)" d="M 111.471805 377.206228 
L 114.365163 377.10059 
L 117.25852 376.848311 
L 120.151878 376.4242 
L 123.045235 375.788397 
L 125.938592 374.885917 
L 128.83195 373.646371 
L 131.725307 371.984147 
L 134.618665 369.799358 
L 137.512022 366.97986 
L 140.405379 363.404613 
L 143.298737 358.948536 
L 146.192094 353.488909 
L 149.085452 346.913151 
L 151.978809 339.127618 
L 154.872166 330.06686 
L 157.765524 319.702567 
L 160.658881 308.051341 
L 163.552238 295.180365 
L 166.445596 281.210134 
L 169.338953 266.313603 
L 175.125668 234.663215 
L 180.912383 202.387729 
L 183.80574 186.754938 
L 186.699098 171.83344 
L 189.592455 157.865775 
L 192.485812 145.049376 
L 195.37917 133.528852 
L 198.272527 123.392558 
L 201.165885 114.673488 
L 204.059242 107.354018 
L 206.952599 101.373643 
L 209.845957 96.638569 
L 212.739314 93.031958 
L 215.632672 90.423672 
L 218.526029 88.678622 
L 221.419386 87.663161 
L 224.312744 87.249315 
L 227.206101 87.317018 
L 230.099459 87.754786 
L 232.992816 88.459415 
L 238.779531 90.294224 
L 244.566246 92.145185 
L 247.459603 92.901769 
L 250.35296 93.473982 
L 253.246318 93.825097 
L 256.139675 93.934288 
L 259.033033 93.797686 
L 261.92639 93.428357 
L 264.819747 92.855058 
L 270.606462 91.273861 
L 279.286534 88.635339 
L 282.179892 87.891463 
L 285.073249 87.275715 
L 287.966607 86.802992 
L 290.859964 86.47189 
L 296.646679 86.151436 
L 305.326751 85.917377 
L 308.220108 85.708883 
L 311.113466 85.360259 
L 314.006823 84.840012 
L 316.90018 84.129679 
L 319.793538 83.225134 
L 322.686895 82.136552 
L 325.580253 80.887124 
L 331.366967 78.048711 
L 340.04704 73.605043 
L 342.940397 72.249099 
L 345.833754 71.017361 
L 348.727112 69.939393 
L 351.620469 69.041682 
L 354.513827 68.350671 
L 357.407184 67.896754 
L 360.300541 67.718784 
L 363.193899 67.868535 
L 366.087256 68.41444 
L 368.980614 69.443953 
L 371.873971 71.063929 
L 374.767328 73.398592 
L 377.660686 76.584876 
L 380.554043 80.765221 
L 383.447401 86.078213 
L 386.340758 92.647751 
L 389.234115 100.571648 
L 392.127473 109.910738 
L 395.02083 120.679577 
L 397.914188 132.839751 
L 400.807545 146.296575 
L 403.700902 160.89969 
L 406.59426 176.447685 
L 412.380975 209.370801 
L 418.167689 242.822884 
L 421.061047 259.022336 
L 423.954404 274.518954 
L 426.847762 289.092199 
L 429.741119 302.566648 
L 432.634476 314.816818 
L 435.527834 325.768479 
L 438.421191 335.396699 
L 441.314548 343.721101 
L 444.207906 350.799036 
L 447.101263 356.717425 
L 449.994621 361.584084 
L 452.887978 365.519216 
L 455.781335 368.647666 
L 458.674693 371.09233 
L 461.56805 372.968944 
L 464.461408 374.382293 
L 467.354765 375.423759 
L 470.248122 376.169983 
L 473.14148 376.682389 
L 476.034837 377.00727 
L 478.928195 377.176157 
L 478.928195 377.176157 
" style="fill:none;stroke:#ff0000;stroke-linecap:square;stroke-width:1.5;"/>
   </g>
   <g id="patch_3">
    <path d="M 72 378 
L 72 51.84 
" style="fill:none;stroke:#cacaca;stroke-linecap:square;stroke-linejoin:miter;stroke-width:0.8;"/>
   </g>
   <g id="patch_4">
    <path d="M 518.4 378 
L 518.4 51.84 
" style="fill:none;stroke:#cacaca;stroke-linecap:square;stroke-linejoin:miter;stroke-width:0.8;"/>
   </g>
   <g id="patch_5">
    <path d="M 72 378 
L 518.4 378 
" style="fill:none;stroke:#cacaca;stroke-linecap:square;stroke-linejoin:miter;stroke-width:0.8;"/>
   </g>
   <g id="patch_6">
    <path d="M 72 51.84 
L 518.4 51.84 
" style="fill:none;stroke:#cacaca;stroke-linecap:square;stroke-linejoin:miter;stroke-width:0.8;"/>
   </g>
  </g>
 </g>
 <defs>
  <clipPath id="pbe84ea1d96">
   <rect height="326.16" width="446.4" x="72" y="51.84"/>
  </clipPath>
 </defs>
</svg>
